…
``` r
# Query information about codecs from FFmpeg
get_codecs()
#> # A tibble: 490 × 8
#>    name       details          type  decoding encoding intraframe lossy lossless
#>    <chr>      <chr>            <fct> <lgl>    <lgl>    <lgl>      <lgl> <lgl>   
#>  1 012v       Uncompressed 4:… Video TRUE     FALSE    TRUE       FALSE TRUE    
#>  2 4xm        4X Movie         Video TRUE     FALSE    FALSE      TRUE  FALSE   
#>  3 8bps       QuickTime 8BPS … Video TRUE     FALSE    TRUE       FALSE TRUE    
#>  4 a64_multi  Multicolor char… Video FALSE    TRUE     TRUE       TRUE  FALSE   
#>  5 a64_multi5 Multicolor char… Video FALSE    TRUE     TRUE       TRUE  FALSE   
#>  6 aasc       Autodesk RLE     Video TRUE     FALSE    FALSE      FALSE TRUE    
#>  7 agm        Amuse Graphics … Video TRUE     FALSE    FALSE      TRUE  FALSE   
#>  8 aic        Apple Intermedi… Video TRUE     FALSE    TRUE       TRUE  FALSE   
#>  9 alias_pix  Alias/Wavefront… Video TRUE     TRUE     TRUE       FALSE TRUE    
#> 10 amv        AMV Video        Video TRUE     TRUE     TRUE       TRUE  FALSE   
#> # … with 480 more rows
```

``` r
# Query information about encoders from FFmpeg
get_encoders()
#> # A tibble: 196 × 8
#>    name    details type  frame_mt slice_mt experimental horiz_band direct_render
#>    <chr>   <chr>   <fct> <lgl>    <lgl>    <lgl>        <lgl>      <lgl>        
#>  1 a64mul… Multic… Video FALSE    FALSE    FALSE        FALSE      TRUE         
#>  2 a64mul… Multic… Video FALSE    FALSE    FALSE        FALSE      TRUE         
#>  3 alias_… Alias/… Video FALSE    FALSE    FALSE        FALSE      FALSE        
#>  4 amv     AMV Vi… Video FALSE    FALSE    FALSE        FALSE      FALSE        
#>  5 apng    APNG (… Video FALSE    FALSE    FALSE        FALSE      TRUE         
#>  6 asv1    ASUS V1 Video FALSE    FALSE    FALSE        FALSE      FALSE        
#>  7 asv2    ASUS V2 Video FALSE    FALSE    FALSE        FALSE      FALSE        
#>  8 avrp    Avid 1… Video FALSE    FALSE    FALSE        FALSE      TRUE         
#>  9 avui    Avid M… Video FALSE    FALSE    TRUE         FALSE      TRUE         
#> 10 ayuv    Uncomp… Video FALSE    FALSE    FALSE        FALSE      TRUE         
#> # … with 186 more rows
```
…
