…
## Examples

``` r
head(ffmpeg_encoders())
#> # A tibble: 6 × 8
#>   name     details type  frame_mt slice_mt experimental horiz_band direct_render
#>   <chr>    <chr>   <fct> <lgl>    <lgl>    <lgl>        <lgl>      <lgl>        
#> 1 a64multi Multic… Video FALSE    FALSE    FALSE        FALSE      TRUE         
#> 2 a64mult… Multic… Video FALSE    FALSE    FALSE        FALSE      TRUE         
#> 3 alias_p… Alias/… Video FALSE    FALSE    FALSE        FALSE      TRUE         
#> 4 amv      AMV Vi… Video FALSE    FALSE    FALSE        FALSE      FALSE        
#> 5 apng     APNG (… Video FALSE    FALSE    FALSE        FALSE      TRUE         
#> 6 asv1     ASUS V1 Video FALSE    FALSE    FALSE        FALSE      TRUE         
ffmpeg_encoders(sort_by_type = FALSE)
#> # A tibble: 223 × 8
#>    name    details type  frame_mt slice_mt experimental horiz_band direct_render
#>    <chr>   <chr>   <fct> <lgl>    <lgl>    <lgl>        <lgl>      <lgl>        
#>  1 a64mul… Multic… Video FALSE    FALSE    FALSE        FALSE      TRUE         
#>  2 a64mul… Multic… Video FALSE    FALSE    FALSE        FALSE      TRUE         
#>  3 aac     AAC (A… Audio FALSE    FALSE    FALSE        FALSE      TRUE         
#>  4 ac3     ATSC A… Audio FALSE    FALSE    FALSE        FALSE      TRUE         
#>  5 ac3_fi… ATSC A… Audio FALSE    FALSE    FALSE        FALSE      TRUE         
#>  6 adpcm_… SEGA C… Audio FALSE    FALSE    FALSE        FALSE      TRUE         
#>  7 adpcm_… ADPCM … Audio FALSE    FALSE    FALSE        FALSE      TRUE         
#>  8 adpcm_… ADPCM … Audio FALSE    FALSE    FALSE        FALSE      TRUE         
#>  9 adpcm_… ADPCM … Audio FALSE    FALSE    FALSE        FALSE      TRUE         
#> 10 adpcm_… ADPCM … Audio FALSE    FALSE    FALSE        FALSE      TRUE         
#> # ℹ 213 more rows
```
